<?xml version="1.0" encoding="UTF-8" standalone="no"?>
<svg
   xmlns:dc="http://purl.org/dc/elements/1.1/"
   xmlns:cc="http://creativecommons.org/ns#"
   xmlns:rdf="http://www.w3.org/1999/02/22-rdf-syntax-ns#"
   xmlns:svg="http://www.w3.org/2000/svg"
   xmlns="http://www.w3.org/2000/svg"
   xmlns:sodipodi="http://sodipodi.sourceforge.net/DTD/sodipodi-0.dtd"
   xmlns:inkscape="http://www.inkscape.org/namespaces/inkscape"
   id="svg3289"
   height="90"
   width="90"
   version="1.1"
   sodipodi:docname="dMindicator.svg"
   inkscape:version="1.0.1 (3bc2e813f5, 2020-09-07)">
  <defs
     id="defs54" />
  <sodipodi:namedview
     pagecolor="#ffffff"
     bordercolor="#666666"
     borderopacity="1"
     objecttolerance="10"
     gridtolerance="10"
     guidetolerance="10"
     inkscape:pageopacity="0"
     inkscape:pageshadow="2"
     inkscape:window-width="1855"
     inkscape:window-height="1056"
     id="namedview52"
     showgrid="true"
     inkscape:zoom="13.780725"
     inkscape:cx="50.385233"
     inkscape:cy="39.696231"
     inkscape:window-x="1985"
     inkscape:window-y="24"
     inkscape:window-maximized="1"
     inkscape:current-layer="svg3289">
    <inkscape:grid
       type="xygrid"
       id="grid84" />
  </sodipodi:namedview>
  <metadata
     id="metadata3294">
    <rdf:RDF>
      <cc:Work
         rdf:about="">
        <dc:format>image/svg+xml</dc:format>
        <dc:type
           rdf:resource="http://purl.org/dc/dcmitype/StillImage" />
        <dc:title />
      </cc:Work>
    </rdf:RDF>
  </metadata>
  <g
     id="layer1"
     transform="translate(0 -962.36)">
    <g
       id="g4451"
       transform="translate(-789 604.36)">
      <g
         id="g4507"
         transform="matrix(2 0 0 2 397 3.2756)">
        <rect
           id="rect4509"
           style="fill:none"
           height="45"
           width="45"
           y="177.36"
           x="196" />
        <path
           id="path4202"
           d="m 205.5,209.3622 c -2.25,0 -2.25,0.93752 -2.25,2.8125 v 3.375 c 0,1.875 0,2.8125 2.25,2.8125 2.25,0 2.25,-0.9375 2.25,-2.8125 v -3.375 c 0,-1.875 0,-2.8125 -2.25,-2.8125 z"
           style="fill:#cccccc" />
        <path
           id="path3843"
           style="fill:#cccccc"
           d="m 214,203.3622 c -2.25,0 -2.25,0.93752 -2.25,2.8125 v 9.375 c 0,1.875 0,2.8125 2.25,2.8125 2.25,0 2.25,-0.9375 2.25,-2.8125 v -9.375 c 0,-1.875 0,-2.8125 -2.25,-2.8125 z" />
        <path
           id="path3853"
           style="fill:#cccccc"
           d="m 231,191.3622 c -2.25,0 -2.25,0.93752 -2.25,2.8125 v 21.375 c 0,1.875 0,2.8125 2.25,2.8125 2.25,0 2.25,-0.9375 2.25,-2.8125 v -21.375 c 0,-1.875 0,-2.8125 -2.25,-2.8125 z" />
      </g>
    </g>
  </g>
  <path
     id="path3843-3"
     style="fill:#cccccc;stroke-width:2"
     d="m 53,52 c -4.5,0 -4.5,1.87504 -4.5,5.625 v 18.75 c 0,3.75 0,5.625 4.5,5.625 4.5,0 4.5,-1.875 4.5,-5.625 V 57.625 C 57.5,53.875 57.5,52 53,52 Z" />
  <path
     style="opacity:1;fill:#cccccc;fill-opacity:1;stroke-width:0.228773"
     d="M 2,42.5 V 11 H 3.9999949 6 V 42.5 74 H 3.9999949 2 Z"
     id="path92" />
  <path
     style="opacity:1;fill:#cccccc;fill-opacity:1;stroke-width:0.030189"
     d="m 6,72 v -2 h 3 3 v 2 2 H 9 6 Z"
     id="path130" />
  <path
     style="opacity:1;fill:#cccccc;fill-opacity:1;stroke-width:0.0408761"
     d="m 77,72 v -2 h 5.5 5.5 v 2 2 H 82.5 77 Z"
     id="path130-3" />
  <path
     style="opacity:1;fill:#cccccc;fill-opacity:1;stroke-width:0.221392"
     d="M 84,40.5 V 11 H 85.999995 88 V 40.5 70 H 85.999995 84 Z"
     id="path92-5" />
  <path
     style="opacity:1;fill:#cccccc;fill-opacity:1;stroke-width:0.109544"
     d="M 5,13 V 11 H 44.5 84 v 2 2 H 44.5 5 Z"
     id="path130-6" />
</svg>
